<?xml version="1.0" encoding="utf-8"?>
<!-- Generator: Adobe Illustrator 24.0.2, SVG Export Plug-In . SVG Version: 6.00 Build 0)  -->
<svg version="1.1" id="Capa_1" xmlns="http://www.w3.org/2000/svg" xmlns:xlink="http://www.w3.org/1999/xlink" x="0px" y="0px"
	 viewBox="0 0 477.9 307.2" style="enable-background:new 0 0 477.9 307.2;" xml:space="preserve">
<style type="text/css">
	.st0{fill:#FE5607;}
</style>
<g>
	<g>
		<path class="st0" d="M469.8,36.7c-5-3.1-11.3-3.4-16.6-0.8L341.3,91.9V51.2c0-28.3-22.9-51.2-51.2-51.2H51.2C22.9,0,0,22.9,0,51.2
			V256c0,28.3,22.9,51.2,51.2,51.2h238.9c28.3,0,51.2-22.9,51.2-51.2v-40.7l111.8,56c8.4,4.2,18.7,0.8,22.9-7.6
			c1.2-2.4,1.8-5,1.8-7.7V51.2C477.9,45.3,474.8,39.8,469.8,36.7z M307.2,256c0,9.4-7.6,17.1-17.1,17.1H51.2
			c-9.4,0-17.1-7.6-17.1-17.1V51.2c0-9.4,7.6-17.1,17.1-17.1h238.9c9.4,0,17.1,7.6,17.1,17.1L307.2,256L307.2,256z M443.7,228.4
			l-102.4-51.2V130l102.4-51.2V228.4z"/>
	</g>
</g>
<g>
	<g>
		<path class="st0" d="M170.7,85.3c-37.7,0-68.3,30.6-68.3,68.3s30.6,68.3,68.3,68.3s68.3-30.6,68.3-68.3S208.4,85.3,170.7,85.3z
			 M170.7,187.7c-18.9,0-34.1-15.3-34.1-34.1s15.3-34.1,34.1-34.1s34.1,15.3,34.1,34.1S189.5,187.7,170.7,187.7z"/>
	</g>
</g>
</svg>
