

{
	"sProcessing":   "等待...",
	"sLengthMenu":   "显示 _MENU_ 个条目",
	"sZeroRecords":  "没有条目。",
	"sInfo":         "_TOTAL_ 个帖子中的第 _START_ 至 _END_ 个帖子",
	"sInfoEmpty":    "记录从 0 到 0 的 0 记录",
	"sInfoFiltered": "（从 _MAX_ 条记录中过滤）",
	"sInfoPostFix":  "",
	"sSearch":       "搜索：",
	"sUrl":          "",
	"oPaginate": {
		"sFirst": "第一",
		"sPrevious": "以前",
		"sNext": "下一个",
		"sLast": "持续"
	},
	"oAria": {
		"sSortAscending":  ": 激活以升序排序",
		"sSortDescending": ": 激活以对降序的列进行排序"
	}
}
