<?xml version="1.0" encoding="utf-8"?>
<!-- Generator: Adobe Illustrator 24.0.2, SVG Export Plug-In . SVG Version: 6.00 Build 0)  -->
<svg version="1.1" id="Capa_1" xmlns="http://www.w3.org/2000/svg" xmlns:xlink="http://www.w3.org/1999/xlink" x="0px" y="0px"
	 viewBox="0 0 132.6 240.8" style="enable-background:new 0 0 132.6 240.8;" xml:space="preserve">
<g>
	<path id="Chevron_Right_1_" d="M129.1,111.8L20.8,3.6C16-1.2,8.3-1.2,3.6,3.6c-4.8,4.7-4.8,12.4,0,17.2l99.7,99.7L3.6,220.1
		c-4.8,4.7-4.8,12.4,0,17.2c4.8,4.7,12.5,4.7,17.2,0L129.1,129C133.8,124.3,133.8,116.5,129.1,111.8z"/>
</g>
</svg>
